{
    "path_root": "D:/public/",
    "url_public": "http://images.xoitv/",
    "url_check_token": "http://192.168.1.203:8989/api/v1/auth/user-info",
    "user_file_abs_path": "",
    "key_token": "token",
    "maxSize":  "2147483648",
    "images": "image/jpeg,image/png,image/jpg,image/svg+xml,image/gif,image/bmp,image/webp",
    "videos": "video/mp4,application/x-mpegURL,video/x-flv,video/MP2T,video/3gppm,video/quicktime,video/x-msvideo,video/x-ms-wmv",
    "files": "image/jpeg,image/png,image/jpg,image/svg+xml,image/gif,image/bmp,image/webp,video/mp4,application/x-mpegURL,video/x-flv,video/MP2T,video/3gppm,video/quicktime,video/x-msvideo,video/x-ms-wmv"
}